%YAML 1.1
%TAG !u! tag:unity3d.com,2011:
--- !u!114 &11400000
MonoBehaviour:
  m_ObjectHideFlags: 0
  m_CorrespondingSourceObject: {fileID: 0}
  m_PrefabInstance: {fileID: 0}
  m_PrefabAsset: {fileID: 0}
  m_GameObject: {fileID: 0}
  m_Enabled: 1
  m_EditorHideFlags: 0
  m_Script: {fileID: 11500000, guid: 8e84023bc71660a4ab41fd7b433574d5, type: 3}
  m_Name: A8708116-AC46-4D2A-B457-E8AEA03F7C9B
  m_EditorClassIdentifier: 
  objectName: p3
  id: 1635194254
  guid: A8708116-AC46-4D2A-B457-E8AEA03F7C9B
  WwiseSwitchGroupReference: {fileID: 11400000, guid: e85083961eec12341a18750f8a328f0b,
    type: 2}
