%YAML 1.1
%TAG !u! tag:unity3d.com,2011:
--- !u!114 &11400000
MonoBehaviour:
  m_ObjectHideFlags: 0
  m_CorrespondingSourceObject: {fileID: 0}
  m_PrefabInstance: {fileID: 0}
  m_PrefabAsset: {fileID: 0}
  m_GameObject: {fileID: 0}
  m_Enabled: 1
  m_EditorHideFlags: 0
  m_Script: {fileID: 11500000, guid: 23c408b5122ba80449a558a249ed6ef1, type: 3}
  m_Name: 51BF2349-07B5-4B22-9405-F2BDE3AEFD7D
  m_EditorClassIdentifier: 
  objectName: pararMusica
  id: 2160515625
  guid: 51BF2349-07B5-4B22-9405-F2BDE3AEFD7D
