%YAML 1.1
%TAG !u! tag:unity3d.com,2011:
--- !u!114 &11400000
MonoBehaviour:
  m_ObjectHideFlags: 0
  m_CorrespondingSourceObject: {fileID: 0}
  m_PrefabInstance: {fileID: 0}
  m_PrefabAsset: {fileID: 0}
  m_GameObject: {fileID: 0}
  m_Enabled: 1
  m_EditorHideFlags: 0
  m_Script: {fileID: 11500000, guid: 23c408b5122ba80449a558a249ed6ef1, type: 3}
  m_Name: D1FD9689-AC61-4132-8EF9-B802EC87F2BA
  m_EditorClassIdentifier: 
  objectName: recibirGolpe
  id: 98641072
  guid: D1FD9689-AC61-4132-8EF9-B802EC87F2BA
