%YAML 1.1
%TAG !u! tag:unity3d.com,2011:
--- !u!114 &11400000
MonoBehaviour:
  m_ObjectHideFlags: 0
  m_CorrespondingSourceObject: {fileID: 0}
  m_PrefabInstance: {fileID: 0}
  m_PrefabAsset: {fileID: 0}
  m_GameObject: {fileID: 0}
  m_Enabled: 1
  m_EditorHideFlags: 0
  m_Script: {fileID: 11500000, guid: c354bc04a279a9e459682578de9cbe83, type: 3}
  m_Name: 3E9B0871-DC44-44B2-8B5A-03622CA6D4B4
  m_EditorClassIdentifier: 
  objectName: p3
  id: 1635194254
  guid: 3E9B0871-DC44-44B2-8B5A-03622CA6D4B4
  WwiseStateGroupReference: {fileID: 11400000, guid: dd87a7dc0e8320f44b654de3f03d5c68,
    type: 2}
